{
  "ATOM": [
    "OM"
  ],
  "YFII": [
    "YFI"
  ],
  "BCHSV": [
    "BCH"
  ],
  "DEGO": [
    "GO"
  ],
  "WING": [
    "WIN"
  ],
  "WINGS": [
    "WING",
    "WIN"
  ],
  "PROM": [
    "OM"
  ],
  "TUSDB": [
    "TUSD"
  ],
  "BGBP": [
    "GBP"
  ],
  "DREP": [
    "REP"
  ],
  "TOMO": [
    "OM"
  ],
  "ALGO": [
    "GO"
  ],
  "SCRT": [
    "SC"
  ],
  "BCHABC": [
    "BCH",
    "BCHA"
  ],
  "AUDIO": [
    "AUD"
  ],
  "DOGE": [
    "OG"
  ],
  "LUNA": [
    "LUN"
  ],
  "BZRX": [
    "ZRX"
  ],
  "AERGO": [
    "GO",
    "AE"
  ],
  "BTCB": [
    "BTC"
  ],
  "RENBTC": [
    "REN",
    "BTC"
  ],
  "OGN": [
    "OG"
  ],
  "KAVA": [
    "AVA"
  ],
  "OMG": [
    "OM"
  ],
  "WBTC": [
    "BTC"
  ],
  "BETH": [
    "ETH"
  ],
  "TFUEL": [
    "FUEL"
  ],
  "COCOS": [
    "COS"
  ],
  "USDSB": [
    "USDS"
  ],
  "BTCST": [
    "BTC"
  ],
  "VIBE": [
    "VIB"
  ],
  "BCHA": [
    "BCH"
  ],
  "FRONT": [
    "ONT"
  ],
  "COMP": [
    "OM"
  ],
  "IOST": [
    "OST"
  ],
  "ALPHA": [
    "PHA"
  ],
  "AVAX": [
    "AVA"
  ],
  "PAXG": [
    "PAX"
  ],
  "LOOM": [
    "OM"
  ]
}
